{
    "cfo.header.myprofile": "My Profile",
    "cfo.header.personalDetails": "Personal Details",
    "cfo.header.cka": "CKA",
    "cfo.header.contactdetail": "Contact Details",
    "cfo.header.personalPolicyAddress": "Policy Address",
    "cfo.header.policyNoHdr": "Policy No",
    "cfo.header.planNameHdr": "Plan Name",
    "cfo.header.dependent": "Dependent",
    "cfo.header.dependentname": "Dependent Name",
    "cfo.header.dependentrelation": "Dependent Relation",
    "cfo.header.dependentnric": "Dependent NRIC",
    "cfo.header.dependentdob": "Dependent DOB",
    "cfo.header.dependentgender": "Gender",
    "cfo.header.personalNewSingaporeAddress": "New Singapore Address",
    "cfo.header.personalNewOverseasAddress": "New Oversea Address",
    "cfo.header.updateHdr": "Update",
    "cfo.header.addressHdr": "Address",
    "cfo.header.personalPolicyUpdate": "Please select policies for update:",

    "cfo.label.profileUpdate": "Profile Update",
    "cfo.label.policyholder": "Policy Holder",
    "cfo.label.nric": "NRIC",
    "cfo.label.dob": "Date of Birth",
    "cfo.label.status": "Status",
    "cfo.label.personalContactMobile1": "Mobile 1",
    "cfo.label.personalContactHouse": "House",
    "cfo.label.personalContactOffice": "Office",
    "cfo.label.personalContactOthers": "Other",
    "cfo.label.personalContactEmail": "Email",

    "cfo.label.areacode": "Area Code",
    "cfo.label.personalAddressSingapore": "Singapore",
    "cfo.label.personalAddressOverseas": "Oversea",
    "cfo.label.personalAddressBlock": "Block",
    "cfo.label.personalAddressStreetName": "Street",
    "cfo.label.personalAddressStoreyUnitNumber": "Storey/Unit No.",
    "cfo.label.personalAddressBuildingName": "Building",
    "cfo.label.postalCode": "Postal Code",
    "cfo.label.personalAddressOverseas": "Oversea Address",
    "cfo.label.personalAddressOverseasCountry": "Select a country",
    "cfo.label.selectedpolicy": "Selected Policy",
    "cfo.label.personalAllPolicies": "All Policies",
    "cfo.label.personalSelectedPolicies": "Selected Policy/Policies Only",

    "cfo.button.submit": "Submit",
    "cfo.button.getAddress": "Get Address",
    "cfo.button.clear": "Clear",
    "cfo.button.back": "Back",

    "cfo.err.fieldIsRequired": "This field is required"

}
