{
    "title": "Submit A Claim",
    "components": [{
        "retrieveOnLoad": true,
        "type": "tableListing",
        "name": "submitAClaim",
        "pageSize": "5",
        "dataSource": "data/components/memberListing.json",
        "filters": {
            "filterSource": "data/components/tableData2.json",
            "sections": [{
                "mode": "edit",
                "name": "tableSection1",
                "separator": null,
                "body": {
                    "rows": [{
                        "columns": [{
                            "type": "dropDownList",
                            "label": "Policy No.",
                            "ddlType": "dynamic",
                            "defaultLabel": "Select Policy",
                            "name": "programName",
                            "id": "programId",
                            "class": "",
                            "style": "",
                            "url": "data/components/policiesDDL.json",
                            "validators": {
                                "isRequired": {
                                    "message": "Field is required"
                                }
                            },
                            "attrs": {}
                        }]
                    }, {
                        "columns": [{
                            "name": "memberName",
                            "type": "singleLineText",
                            "label": "Member Name",
                            "attrs": {},
                            "validators": {
                                "isRequired": {
                                    "message": "Field is required"
                                }
                            }
                        }, {
                            "name": "nricOrPassport",
                            "type": "singleLineText",
                            "label": "NRIC / Passport No.",
                            "attrs": {}
                        }]
                    }]
                }
            }]
        },
        "fields": [{
            "label": "ID",
            "name": "memberId",
            "hide": ["phone", "tablet"],
            "default": true,
            "type": "text"
        }, {
            "label": "Member Name",
            "name": "memberName",
            "hide": [],
            "type": "text"
        }, {
            "label": "Member NRIC",
            "name": "nricOrPassport",
            "hide": ["phone", "tablet"],
            "type": "text"
        }, {
            "label": "Company Name",
            "name": "companyName",
            "hide": ["phone", "tablet"],
            "type": "text"
        }, {
            "label": "Policy No.",
            "name": "policyNumber",
            "hide": [],
            "type": "text"
        }, {
            "label": "Claim Form",
            "name": "claimForm",
            "hide": [],
            "ignore": true,
            "type": "pageLink"
        }],
        "footer": {},
        "attrs": {}
    }]
}
