{
    "data": [{
        "memberId": "1",
        "memberName": "Wong Loo Shin",
        "nricOrPassport": "58809119F",
        "companyName": "Hitachi eBworx",
        "policyNumber": "GS88765",
        "claimForm": [{
            "label": "Inpatient",
            "url": "components",
            "params": {
                "scrncd": "/data/components/layout.json",
                "param2": "param2"
            }
        }, {
            "label": "Outpatient",
            "url": "components",
            "params": {
                "scrncd": "/data/components/layout_submit-claim-outpatient.json",
                "param2": "param2"
            }
        }, {
            "label": "Dental",
            "url": "components",
            "params": {
                "scrncd": "/data/components/layout_submit-claim-dental.json",
                "param2": "param2"
            }
        }]
    }, {
        "memberId": "2",
        "memberName": "Wong Yee Hung",
        "nricOrPassport": "58089139G",
        "companyName": "Hitachi eBworx",
        "policyNumber": "GS12345",
        "claimForm": [{
            "label": "Inpatient",
            "url": "components",
            "params": {
                "scrncd": "/data/components/layout_submit-claim-inpatient.json",
                "param2": "param2"
            }
        }, {
            "label": "Outpatient",
            "url": "components",
            "params": {
                "scrncd": "/data/components/layout_submit-claim-outpatient.json",
                "param2": "param2"
            }
        }, {
            "label": "Dental",
            "url": "components",
            "params": {
                "scrncd": "/data/components/layout_submit-claim-dental.json",
                "param2": "param2"
            }
        }]
    }]
}
