{
    "status": "success",
    "data": {
        "display": "{name} ({number})",
        "value": "number",
        "items": [
            {
                "name": "Policy A",
                "number": "GS88765"
            },
            {
                "name": "Policy B",
                "number": "GS12345"
            },
            {
                "name": "Policy C",
                "number": "GS88888"
            }
        ],
        "default_message": ""
    },
    "total": 3
}
