{
    "data": [{
        "field1": "field1 data",
        "field2": "123.32",
        "field3": "1433926499",
        "field4": [{
            "label": "Inpatient",
            "url": "dashboard",
            "params": {
                "scrncd": "/data/components/layout_submit-claim-inpatient.json",
                "param2": "param2"
            }
        }, {
            "label": "Outpatient",
            "url": "components",
            "params": {
                "scrncd": "/data/components/layout_submit-claim-outpatient.json",
                "param2": "param2"
            }
        }, {
            "label": "Dental",
            "url": "components",
            "params": {
                "scrncd": "/data/components/layout_submit-claim-dental.json",
                "param2": "param2"
            }
        }]
    }, {
        "field1": "field1 data",
        "field2": "234",
        "field3": "1433226499",
        "field4": {

        }
    }, {
        "field1": "field1 data",
        "field2": "234234",
        "field3": "1433926499",
        "field4": {

        }
    }, {
        "field1": "field1 data",
        "field2": "1123",
        "field3": "1433936421",
        "field4": {

        }
    }, {
        "field1": "field1 data",
        "field2": "876",
        "field3": "1443226499",
        "field4": {

        }
    }, {
        "field1": "field1 data",
        "field2": "543.3",
        "field3": "1433456499",
        "field4": {

        }
    }]
}
