{
    "cfo.header.myProfileTitle": "My Profile",
    "cfo.header.personalDetails": "Personal Details",
    "cfo.header.personalCka": "CKA",
    "cfo.header.contactDetails": "Contact Details",
    "cfo.header.policyNoHdr": "Policy No",
    "cfo.header.planNameHdr": "Plan Name",
    "cfo.header.dependentDetails": "Dependent",
    "cfo.header.personNameHdr": "Name",
    "cfo.header.personRelationshipHdr": "Relationship",
    "cfo.header.identityDocNumberHdr": " NRIC/FIN/Passport",
    "cfo.header.dateOfBirthHdr": "Date of Birth",
    "cfo.header.genderHdr": "Gender",
    "cfo.header.addressHdr": "Policy Address",
    "cfo.header.addressHdr": "Address",

    "cfo.label.personalName": "Policy Holder",
    "cfo.label.identityDocNumber": "NRIC/FIN/Passport",
    "cfo.label.dateOfBirth": "Date of Birth",
    "cfo.label.personalMartialStatus": "Status",
    "cfo.label.personalAddress": "Residential Address",
    "cfo.label.personalCkaStatus": "CKA Status",
    "cfo.label.personalCkaDateSubmitted": "CKA Submitted",
    "cfo.label.personalCkaExpiryDate": "CKA Expiry",
    "cfo.label.personalContactMobile1": "Mobile 1",
    "cfo.label.personalContactHouse": "House",
    "cfo.label.personalContactOffice": "Office",
    "cfo.label.personalContactOthers": "Other",
    "cfo.label.personalContactEmail": "Email",
    "cfo.label.ckaFailed": "Failed",
    "cfo.label.ckaPassed": "Passed",

    "cfo.button.update": "Update"

}
