{
    "status": "success",
    "data": {
        "file_upload_link": "http://localhost/uipcfo/FileUploadDBStream?ModuleCode=CFO_UPLOAD&SysCode=SYS&DftcId=99418853B6264ABAB7643AEF45D377C9&ReferenceId_1=CORPUSER008",
        "company_id": "FD40F2020A80020C008FA0640BFDCD5A",
        "company_name": "OCBC Bank",
        "registration_num": "20000003948EDE",
        "business_phone_num": "650193939",
        "business_addr": {
            "block": "701",
            "street": "Tao Payoh Lorong 1",
            "storey_num": "15",
            "unit_num": "08",
            "country_name": "Singapore",
            "postal_cd": "450701"
        },
        "cif_num": "CORPUSER008",
        "subsidiaries": [{
            "company_id": "FD40F2020A80020C008FA0640BFDCD6B",
            "registration_num": "20000003948EDE",
            "business_phone_num": "650193939",
            "business_addr": {
                "addr_1": "303, Jalan Ampang",
                "addr_2": "GE Centre South",
                "addr_3": " Selangor",
                "addr_4": " Dahrul Ehsan",
                "country_name": "MY - Malaysia"
            },
            "cif_num": "CORPUSER008SUBA001",
            "subsidiary_name": "Great Eastern Life Assurance Co Ltd",
            "parent": "CORPUSER008SUBA"
        }, {
            "company_id": "FD40F2020A80020C008FA0640BFDCD6C",
            "registration_num": "20000003948EDE",
            "business_phone_num": "650193939",
            "business_addr": {
                "street": "7 Tampines Grande",
                "building": "Hitachi Square",
                "storey_num": "02",
                "unit_num": "04",
                "country_name": "Singapore",
                "postal_cd": "528756"
            },
            "cif_num": "CORPUSER008SUBA002",
            "subsidiary_name": "Lion Global Investor Limited",
            "parent": "CORPUSER008SUBA"
        }, {
            "company_id": "FD40F2020A80020C008FA0640BFDCD5B",
            "registration_num": "20000003948EDE",
            "business_phone_num": "650193939",
            "business_addr": {
                "street": "7 Tampines Grande",
                "building": "Hitachi Square",
                "storey_num": "02",
                "unit_num": "04",
                "country_name": "Singapore",
                "postal_cd": "528756"
            },
            "cif_num": "CORPUSER008SUBA",
            "subsidiary_name": "Great Eastern Holdings",
            "parent": "CORPUSER008"
        }, {
            "company_id": "FD40F2020A80020C008FA0640BFDCD5C",
            "registration_num": "20000003948EDE",
            "business_phone_num": "650193939",
            "business_addr": {
                "addr_1": "18 Church Street",
                "addr_2": "OCBC Centre South",
                "addr_3": " Selangor",
                "addr_4": " Dahrul Ehsan",
                "country_name": "MY - Malaysia"
            },
            "cif_num": "CORPUSER008SUBB",
            "subsidiary_name": "OCBC Securities",
            "parent": "CORPUSER008"
        }]
    },
    "total": 0
}
