{
    "components": [{
        "id": "669d12b4-5d93-6c4f-3db0-bf6cd960dbe9",
        "type": "dynamicForm",
        "name": "dentalForm",
        "attrs": {},
        "actions": [{
            "label": "cfo.button.submit",
            "type": "submit",
            "apiPath": ""
        }, {
            "label": "cfo.button.saveAsDraft",
            "type": "save",
            "apiPath": ""
        }],
        "mode": "edit",
        "error": {
            "class": "alert alert-danger",
            "style": "margin-bottom:20px!important;text-align:left!important;",
            "attrs": {
                "role": "alert"
            },
            "errorItem": {
                "prefix": {
                    "class": "glyphicon glyphicon-remove-sign",
                    "style": "",
                    "attrs": {
                        "aria-hidden": "true"
                    }
                },
                "message": {
                    "class": "",
                    "style": "padding-left:5px",
                    "attrs": {}
                },
                "postfix": {
                    "class": "",
                    "style": "",
                    "attrs": {}
                }
            }
        },
        "header": {
            "attrs": {}
        },
        "sections": [{
            "id": 1435718350609,
            "name": "employeeDetails",
            "header": {},
            "body": {
                "rows": [{
                    "id": "27ee5472-7ff8-e3cb-866e-15efebaedecc",
                    "columns": [{
                        "name": "claimSubmissionProc",
                        "id": "claimSubmissionProcId",
                        "type": "modalDialogLink",
                        "label": {
                            "name": "cfo.label.claimSubmissionProcLink",
                            "tooltip": ""
                        },
                        "class": "",
                        "style": "background-color:orange;",
                        "attrs": {},
                        "validators": {},
                        "dependencies": [],
                        "printInModal": true,
                        "defaultVisible": true,
                        "title": "cfo.header.claimSubmissionProcTitle",
                        "templateUrl": "/data/claim/claim-submission-procedures-dental.html"
                    }]
                }, {
                    "id": 1435718359736,
                    "columns": [{
                        "name": "companyName",
                        "id": "companyNameId",
                        "type": "singleLineText",
                        "label": {
                            "name": "cfo.label.companyName",
                            "tooltip": "",
                            "tooltipPlacement": "top"
                        },
                        "class": "",
                        "style": "",
                        "attrs": {},
                        "validators": {},
                        "dependencies": [],
                        "defaultVisible": true,
                        "defaultDisable": false,
                        "labelCssClass": "col-xs-12",
                        "inputCssClass": "col-xs-12",
                        "labelStyle": "",
                        "inputStyle": "",
                        "defaultValue": "",
                        "maskInput": false
                    }]
                }, {
                    "id": 1435718396231,
                    "columns": [{
                        "name": "policyNo",
                        "id": "policyNoId",
                        "type": "singleLineText",
                        "label": {
                            "name": "cfo.label.policyNumber",
                            "tooltip": "",
                            "tooltipPlacement": "top"
                        },
                        "class": "",
                        "style": "",
                        "attrs": {},
                        "validators": {},
                        "dependencies": [],
                        "defaultVisible": true,
                        "defaultDisable": false,
                        "labelCssClass": "col-xs-12",
                        "inputCssClass": "col-xs-12",
                        "labelStyle": "",
                        "inputStyle": "",
                        "defaultValue": "",
                        "maskInput": false
                    }]
                }, {
                    "id": 1435718418901,
                    "columns": [{
                        "name": "claimType",
                        "id": "claimTypeId",
                        "type": "singleLineText",
                        "label": {
                            "name": "cfo.label.claimType",
                            "tooltip": "",
                            "tooltipPlacement": "top"
                        },
                        "class": "",
                        "style": "",
                        "attrs": {},
                        "validators": {},
                        "dependencies": [],
                        "defaultVisible": true,
                        "defaultDisable": false,
                        "labelCssClass": "col-xs-12",
                        "inputCssClass": "col-xs-12",
                        "labelStyle": "",
                        "inputStyle": "",
                        "defaultValue": "",
                        "maskInput": false
                    }]
                }, {
                    "id": 1435718454004,
                    "columns": [{
                        "name": "employeName",
                        "id": "employeNameId",
                        "type": "singleLineText",
                        "label": {
                            "name": "cfo.label.employeeName",
                            "tooltip": "",
                            "tooltipPlacement": "top"
                        },
                        "class": "",
                        "style": "",
                        "attrs": {},
                        "validators": {},
                        "dependencies": [],
                        "defaultVisible": true,
                        "defaultDisable": false,
                        "labelCssClass": "col-xs-12",
                        "inputCssClass": "col-xs-12",
                        "labelStyle": "",
                        "inputStyle": "",
                        "defaultValue": "",
                        "maskInput": false
                    }, {
                        "name": "nric",
                        "id": "nricId",
                        "type": "singleLineText",
                        "label": {
                            "name": "cfo.label.nric",
                            "tooltip": "",
                            "tooltipPlacement": "top"
                        },
                        "class": "",
                        "style": "",
                        "attrs": {},
                        "validators": {},
                        "dependencies": [],
                        "defaultVisible": true,
                        "defaultDisable": false,
                        "labelCssClass": "col-xs-12",
                        "inputCssClass": "col-xs-12",
                        "labelStyle": "",
                        "inputStyle": "",
                        "defaultValue": "",
                        "maskInput": false
                    }]
                }],
                "panelStyle": "",
                "style": ""
            },
            "footer": {},
            "defaultVisible": true,
            "mode": "view",
            "style": "",
            "panelStyle": "border-color:#FFFFFF;"
        }, {
            "id": 1435718535094,
            "name": "claimDetails",
            "header": {
                "name": "cfo.header.claimDetails"
            },
            "body": {
                "rows": [{
                    "id": 1435718579195,
                    "columns": [{
                        "name": "patientName",
                        "id": "patientNameId",
                        "type": "dropDownList",
                        "label": {
                            "name": "cfo.label.patient",
                            "tooltip": "",
                            "tooltipPlacement": "top"
                        },
                        "class": "",
                        "style": "",
                        "attrs": {},
                        "validators": {
                            "isRequired": {
                                "message": "cfo.claim.err.isRequired"
                            }
                        },
                        "dependencies": [],
                        "defaultLabel": "cfo.label.pleaseSelect",
                        "defaultVisible": true,
                        "defaultDisable": false,
                        "ddlType": "dynamic",
                        "labelCssClass": "col-xs-12",
                        "inputCssClass": "col-xs-12",
                        "labelStyle": "",
                        "inputStyle": "",
                        "defaultValue": ""
                    }]
                }, {
                    "id": 1435718712852,
                    "columns": [{
                        "name": "billType",
                        "id": "billTypeId",
                        "type": "dropDownList",
                        "label": {
                            "name": "cfo.label.billType",
                            "tooltip": "",
                            "tooltipPlacement": "top"
                        },
                        "class": "",
                        "style": "",
                        "attrs": {},
                        "validators": {
                            "isRequired": {
                                "message": "cfo.claim.err.isRequired"
                            }
                        },
                        "dependencies": [],
                        "defaultLabel": "cfo.label.pleaseSelect",
                        "defaultVisible": true,
                        "defaultDisable": false,
                        "ddlType": "dynamic",
                        "url": "",
                        "ddlItems": [{
                            "label": "qq",
                            "value": "qq"
                        }, {
                            "label": "ee",
                            "value": "ee"
                        }],
                        "labelCssClass": "col-xs-12",
                        "inputCssClass": "col-xs-12",
                        "labelStyle": "",
                        "inputStyle": "",
                        "defaultValue": ""
                    }]
                }, {
                    "id": 1435718749073,
                    "columns": [{
                        "name": "treatmentPlace",
                        "id": "treatmentPlaceId",
                        "type": "autoCompleteInput",
                        "label": {
                            "name": "cfo.label.treatmentPlace",
                            "tooltip": "",
                            "tooltipPlacement": "top"
                        },
                        "class": "",
                        "style": "",
                        "attrs": {},
                        "validators": {
                            "patterns": [{
                                "message": "cfo.claim.err.onlyAlphanumeric",
                                "value": "^[a-zA-Z0-9\\s]+$",
                                "id": "08ea0815-397a-10a5-54b6-2ec8e13ec982"
                            }],
                            "isRequired": {
                                "message": "cfo.claim.err.isRequired"
                            }
                        },
                        "dependencies": [],
                        "defaultVisible": true,
                        "defaultDisable": false,
                        "listType": "dynamic",
                        "minChar": 1,
                        "listNumber": 10,
                        "labelCssClass": "col-xs-12",
                        "inputCssClass": "col-xs-12",
                        "labelStyle": "",
                        "inputStyle": "",
                        "defaultValue": ""
                    }]
                }, {
                    "id": 1435718869706,
                    "columns": [{
                        "name": "dateIncurred",
                        "id": "dateIncurredId",
                        "type": "datePicker",
                        "label": {
                            "name": "cfo.label.dateIncurred",
                            "tooltip": "",
                            "tooltipPlacement": "top"
                        },
                        "class": "",
                        "style": "",
                        "attrs": {},
                        "validators": {
                            "isRequired": {
                                "message": "cfo.claim.err.isRequired"
                            }
                        },
                        "dependencies": [],
                        "format": "dd-MMM-yyyy",
                        "defaultVisible": true,
                        "defaultDisable": false,
                        "labelCssClass": "col-xs-12",
                        "inputCssClass": "col-xs-12",
                        "labelStyle": "",
                        "inputStyle": "",
                        "defaultValue": ""
                    }]
                }, {
                    "id": 1435718962380,
                    "columns": [{
                        "name": "incurredAmt",
                        "id": "incurredAmtId",
                        "type": "singleLineText",
                        "label": {
                            "name": "cfo.label.incurredAmtSGD",
                            "tooltip": "",
                            "tooltipPlacement": "top"
                        },
                        "class": "",
                        "style": "",
                        "attrs": {},
                        "validators": {
                            "isRequired": {
                                "message": "cfo.claim.err.isRequired"
                            }
                        },
                        "dependencies": [],
                        "defaultVisible": true,
                        "defaultDisable": false,
                        "labelCssClass": "col-xs-12",
                        "inputCssClass": "col-xs-12",
                        "labelStyle": "",
                        "inputStyle": "",
                        "defaultValue": "",
                        "maskInput": false
                    }]
                }, {
                    "id": 1435719025577,
                    "columns": [{
                        "name": "diagnosis",
                        "id": "diagnosisId",
                        "type": "multiLineText",
                        "label": {
                            "name": "cfo.label.diagnosis",
                            "tooltip": "",
                            "tooltipPlacement": "top"
                        },
                        "class": "",
                        "style": "",
                        "attrs": {},
                        "validators": {
                            "patterns": [{
                                "message": "cfo.claim.err.onlyAlphanumeric",
                                "value": "^[a-zA-Z0-9\\s]+$",
                                "id": 1435719062166
                            }],
                            "isRequired": {
                                "message": "cfo.claim.err.isRequired"
                            }
                        },
                        "dependencies": [],
                        "displayRows": "3",
                        "defaultVisible": true,
                        "defaultDisable": false,
                        "labelCssClass": "col-xs-12",
                        "inputCssClass": "col-xs-12",
                        "labelStyle": "",
                        "inputStyle": "",
                        "defaultValue": ""
                    }]
                }]
            },
            "footer": {},
            "defaultVisible": true,
            "mode": "edit"
        }, {
            "id": 1435719178375,
            "name": "otherClaimDetails",
            "header": {
                "name": "cfo.header.otherClaimDetails"
            },
            "body": {
                "rows": [{
                    "id": 1435720042988,
                    "columns": [{
                        "name": "firstVisit",
                        "id": "firstVisitId",
                        "type": "radioGroup",
                        "label": {
                            "name": "cfo.label.firstVisit",
                            "tooltip": "",
                            "tooltipPlacement": "top"
                        },
                        "class": "",
                        "style": "",
                        "attrs": {},
                        "validators": {},
                        "dependencies": [],
                        "defaultVisible": true,
                        "defaultDisable": false,
                        "alignment": "inline",
                        "items": [{
                            "label": "cfo.label.yes",
                            "value": "yes"
                        }, {
                            "label": "cfo.label.no",
                            "value": "no"
                        }],
                        "labelCssClass": "col-xs-12",
                        "inputCssClass": "col-xs-12",
                        "labelStyle": "",
                        "inputStyle": "",
                        "defaultValue": "no"
                    }]
                }, {
                    "id": 1435720108295,
                    "columns": [{
                        "name": "specialistClinicName",
                        "id": "specialistClinicNameId",
                        "type": "singleLineText",
                        "label": {
                            "name": "cfo.label.specialistClinicName",
                            "tooltip": "",
                            "tooltipPlacement": "top"
                        },
                        "class": "",
                        "style": "",
                        "attrs": {},
                        "validators": {
                            "patterns": [{
                                "message": "cfo.claim.err.onlyAlphanumeric",
                                "value": "^[a-zA-Z0-9\\s]+$",
                                "id": 1435720414197
                            }],
                            "isRequired": {
                                "message": "cfo.claim.err.isRequired"
                            }
                        },
                        "dependencies": [{
                            "watch": "firstVisit",
                            "actionList": {
                                "yes": [{
                                    "actionType": "visible",
                                    "value": true
                                }],
                                "no": [{
                                    "actionType": "visible",
                                    "value": false
                                }]
                            }
                        }],
                        "defaultVisible": false,
                        "defaultDisable": false,
                        "labelCssClass": "col-xs-12",
                        "inputCssClass": "col-xs-12",
                        "labelStyle": "",
                        "inputStyle": "",
                        "defaultValue": "",
                        "maskInput": false
                    }]
                }, {
                    "id": 1435720290269,
                    "columns": [{
                        "name": "referringClinicName",
                        "id": "referringClinicNameId",
                        "type": "singleLineText",
                        "label": {
                            "name": "cfo.label.referringClinicName",
                            "tooltip": "",
                            "tooltipPlacement": "top"
                        },
                        "class": "",
                        "style": "",
                        "attrs": {},
                        "validators": {
                            "patterns": [{
                                "message": "cfo.claim.err.onlyAlphanumeric",
                                "value": "^[a-zA-Z0-9\\s]+$",
                                "id": 1435720406685
                            }],
                            "isRequired": {
                                "message": "cfo.claim.err.isRequired"
                            }
                        },
                        "dependencies": [{
                            "watch": "firstVisit",
                            "actionList": {
                                "no": [{
                                    "actionType": "visible",
                                    "value": false
                                }],
                                "yes": [{
                                    "actionType": "visible",
                                    "value": true
                                }]
                            }
                        }],
                        "defaultVisible": false,
                        "defaultDisable": false,
                        "labelCssClass": "col-xs-12",
                        "inputCssClass": "col-xs-12",
                        "labelStyle": "",
                        "inputStyle": "",
                        "defaultValue": "",
                        "maskInput": false
                    }]
                }, {
                    "id": "33ed449a-a475-bb25-b524-e0f492ad9239",
                    "columns": [{
                        "name": "specialistClinicNameNon",
                        "id": "specialistClinicNameNonId",
                        "type": "singleLineText",
                        "label": {
                            "name": "cfo.label.specialistClinicName",
                            "tooltip": "",
                            "tooltipPlacement": "top"
                        },
                        "class": "",
                        "style": "",
                        "attrs": {},
                        "validators": {
                            "patterns": [{
                                "message": "cfo.claim.err.onlyAlphanumeric",
                                "value": "^[a-zA-Z0-9\\s]+$",
                                "id": "03b54d02-a3e1-05dd-200c-0ec53f77d332"
                            }]
                        },
                        "dependencies": [{
                            "watch": "firstVisit",
                            "actionList": {
                                "yes": [{
                                    "actionType": "visible",
                                    "value": false
                                }],
                                "no": [{
                                    "actionType": "visible",
                                    "value": true
                                }]
                            }
                        }],
                        "defaultVisible": true,
                        "defaultDisable": false,
                        "labelCssClass": "col-xs-12",
                        "inputCssClass": "col-xs-12",
                        "labelStyle": "",
                        "inputStyle": "",
                        "defaultValue": "",
                        "maskInput": false
                    }]
                }, {
                    "id": "92d8510a-b6b2-42c7-4dc5-5b058f8bc8c4",
                    "columns": [{
                        "name": "referringClinicNameNon",
                        "id": "referringClinicNameNonId",
                        "type": "singleLineText",
                        "label": {
                            "name": "cfo.label.referringClinicName",
                            "tooltip": "",
                            "tooltipPlacement": "top"
                        },
                        "class": "",
                        "style": "",
                        "attrs": {},
                        "validators": {
                            "patterns": [{
                                "message": "cfo.claim.err.onlyAlphanumeric",
                                "value": "^[a-zA-Z0-9\\s]+$",
                                "id": "7cf1cfa8-4c8f-3893-963a-787cd69c002d"
                            }]
                        },
                        "dependencies": [{
                            "watch": "firstVisit",
                            "actionList": {
                                "no": [{
                                    "actionType": "visible",
                                    "value": true
                                }],
                                "yes": [{
                                    "actionType": "visible",
                                    "value": false
                                }]
                            }
                        }],
                        "defaultVisible": true,
                        "defaultDisable": false,
                        "labelCssClass": "col-xs-12",
                        "inputCssClass": "col-xs-12",
                        "labelStyle": "",
                        "inputStyle": "",
                        "defaultValue": "",
                        "maskInput": false
                    }]
                }, {
                    "id": 1435721365909,
                    "columns": [{
                        "name": "otherClaim",
                        "id": "otherClaimId",
                        "type": "radioGroup",
                        "label": {
                            "name": "cfo.label.otherClaim",
                            "tooltip": "",
                            "tooltipPlacement": "top"
                        },
                        "class": "",
                        "style": "",
                        "attrs": {},
                        "validators": {},
                        "dependencies": [],
                        "defaultVisible": true,
                        "defaultDisable": false,
                        "alignment": "inline",
                        "items": [{
                            "label": "cfo.label.yes",
                            "value": "yes"
                        }, {
                            "label": "cfo.label.no",
                            "value": "no"
                        }],
                        "labelCssClass": "col-xs-12",
                        "inputCssClass": "col-xs-12",
                        "labelStyle": "",
                        "inputStyle": "",
                        "defaultValue": "no"
                    }]
                }, {
                    "id": 1435721518204,
                    "columns": [{
                        "name": "insurCompanyName",
                        "id": "insurCompanyNameId",
                        "type": "singleLineText",
                        "label": {
                            "name": "cfo.label.insurCompanyName",
                            "tooltip": "",
                            "tooltipPlacement": "top"
                        },
                        "class": "",
                        "style": "",
                        "attrs": {},
                        "validators": {
                            "isRequired": {
                                "message": "cfo.claim.err.isRequired"
                            },
                            "patterns": [{
                                "message": "cfo.claim.err.onlyAlphanumeric",
                                "value": "^[a-zA-Z0-9\\s]+$",
                                "id": 1435721612292
                            }]
                        },
                        "dependencies": [{
                            "watch": "otherClaim",
                            "actionList": {
                                "yes": [{
                                    "actionType": "visible",
                                    "value": true
                                }],
                                "no": [{
                                    "actionType": "visible",
                                    "value": false
                                }]
                            }
                        }],
                        "defaultVisible": false,
                        "defaultDisable": false,
                        "labelCssClass": "col-xs-12",
                        "inputCssClass": "col-xs-12",
                        "labelStyle": "",
                        "inputStyle": "",
                        "defaultValue": "",
                        "maskInput": false
                    }]
                }]
            },
            "footer": {},
            "defaultVisible": true,
            "mode": "edit"
        }, {
            "id": 1435721795043,
            "name": "attachment",
            "header": {
                "name": "cfo.header.attachment"
            },
            "body": {
                "rows": [{
                    "id": "a7f7d88e-0f39-5c12-7fec-98bc2bf92503",
                    "columns": [{
                        "name": "fileAttachment",
                        "id": "fileAttachmentId",
                        "type": "fileUpload",
                        "label": {
                            "name": "cfo.label.fileAttachment",
                            "tooltip": "",
                            "tooltipPlacement": "top"
                        },
                        "class": "",
                        "style": "",
                        "attrs": {},
                        "validators": {
                            "blockSameFileName": {
                                "message": "cfo.claim.err.blockSameFileName"
                            }
                        },
                        "dependencies": [],
                        "buttonClass": "btn btn-danger",
                        "allowedType": {
                            "fileExt": ["PDF", "PNG", "JPEG", "JPG"],
                            "message": "cfo.claim.err.allowedFileType"
                        },
                        "allowedSize": {
                            "value": "25000000",
                            "message": "cfo.claim.err.allowedFileSize"
                        },
                        "authentication": true,
                        "keyName": "authtoken",
                        "requestHeaderName": "X-Auth-Token",
                        "labelCssClass": "col-xs-12",
                        "inputCssClass": "col-xs-12",
                        "labelStyle": "",
                        "inputStyle": "",
                        "defaultValue": "",
                        "defaultVisible": true,
                        "defaultDisable": false
                    }]
                }]
            },
            "footer": {},
            "defaultVisible": true,
            "mode": "edit"
        }, {
            "id": 1435722480386,
            "name": "bankingInfo",
            "header": {
                "name": "cfo.header.bankingInfo"
            },
            "body": {
                "rows": [{
                    "id": 1435722618234,
                    "columns": [{
                        "name": "reimbursementMethod",
                        "id": "reimbursementMethodId",
                        "type": "dropDownList",
                        "label": {
                            "name": "cfo.label.reimbursementMethod",
                            "tooltip": "",
                            "tooltipPlacement": "top"
                        },
                        "class": "",
                        "style": "",
                        "attrs": {},
                        "validators": {
                            "isRequired": {
                                "message": "cfo.claim.err.isRequired"
                            }
                        },
                        "dependencies": [],
                        "defaultLabel": "cfo.label.pleaseSelect",
                        "defaultVisible": true,
                        "defaultDisable": false,
                        "ddlType": "static",
                        "ddlItems": [{
                            "label": "cfo.label.creditBankAccount",
                            "value": "bankAccount"
                        }, {
                            "label": "cfo.label.chequeEmployee",
                            "value": "chequeEmployee"
                        }, {
                            "label": "cfo.label.chequeEmployer",
                            "value": "chequeEmployer"
                        }],
                        "labelCssClass": "col-xs-12",
                        "inputCssClass": "col-xs-12",
                        "labelStyle": "",
                        "inputStyle": "",
                        "defaultValue": ""
                    }, {
                        "name": "bankBranch",
                        "id": "bankBranchId",
                        "type": "dropDownList",
                        "label": {
                            "name": "cfo.label.bankBranch",
                            "tooltip": "",
                            "tooltipPlacement": "top"
                        },
                        "class": "",
                        "style": "",
                        "attrs": {},
                        "validators": {
                            "isRequired": {
                                "message": "cfo.claim.err.isRequired"
                            }
                        },
                        "dependencies": [{
                            "watch": "reimbursementMethod",
                            "actionList": {
                                "chequeEmployee": [{
                                    "actionType": "disable",
                                    "value": true
                                }],
                                "chequeEmployer": [{
                                    "actionType": "disable",
                                    "value": true
                                }],
                                "bankAccount": [{
                                    "actionType": "disable",
                                    "value": false
                                }]
                            }
                        }],
                        "defaultLabel": "cfo.label.pleaseSelect",
                        "defaultVisible": true,
                        "defaultDisable": false,
                        "ddlType": "dynamic",
                        "labelCssClass": "col-xs-12",
                        "inputCssClass": "col-xs-12",
                        "labelStyle": "",
                        "inputStyle": "",
                        "defaultValue": ""
                    }]
                }, {
                    "id": 1435723022354,
                    "columns": [{
                        "name": "bankName",
                        "id": "bankNameId",
                        "type": "dropDownList",
                        "label": {
                            "name": "cfo.label.bankName",
                            "tooltip": "",
                            "tooltipPlacement": "top"
                        },
                        "class": "",
                        "style": "",
                        "attrs": {},
                        "validators": {
                            "isRequired": {
                                "message": "cfo.claim.err.isRequired"
                            }
                        },
                        "dependencies": [{
                            "watch": "reimbursementMethod",
                            "actionList": {
                                "chequeEmployee": [{
                                    "actionType": "disable",
                                    "value": true
                                }],
                                "chequeEmployer": [{
                                    "actionType": "disable",
                                    "value": true
                                }],
                                "bankAccount": [{
                                    "actionType": "disable",
                                    "value": false
                                }]
                            }
                        }],
                        "defaultLabel": "cfo.label.pleaseSelect",
                        "defaultVisible": true,
                        "defaultDisable": false,
                        "ddlType": "dynamic",
                        "labelCssClass": "col-xs-12",
                        "inputCssClass": "col-xs-12",
                        "labelStyle": "",
                        "inputStyle": "",
                        "defaultValue": ""
                    }, {
                        "name": "bankAccountNo",
                        "id": "bankAccountNoId",
                        "type": "singleLineText",
                        "label": {
                            "name": "cfo.label.bankAccountNo",
                            "tooltip": "",
                            "tooltipPlacement": "top"
                        },
                        "class": "",
                        "style": "",
                        "attrs": {},
                        "validators": {
                            "isRequired": {
                                "message": "cfo.claim.err.isRequired"
                            }
                        },
                        "dependencies": [{
                            "watch": "reimbursementMethod",
                            "actionList": {
                                "chequeEmployee": [{
                                    "actionType": "disable",
                                    "value": true
                                }],
                                "chequeEmployer": [{
                                    "actionType": "disable",
                                    "value": true
                                }],
                                "bankAccount": [{
                                    "actionType": "disable",
                                    "value": false
                                }]
                            }
                        }],
                        "defaultVisible": true,
                        "defaultDisable": false,
                        "labelCssClass": "col-xs-12",
                        "inputCssClass": "col-xs-12",
                        "labelStyle": "",
                        "inputStyle": "",
                        "defaultValue": "",
                        "maskInput": false
                    }]
                }, {
                    "id": "1d5a6ae1-7ac1-a255-204b-8ee3806cddb7",
                    "columns": [{
                        "name": "bankingInfoText",
                        "id": "bankingInfoTextId",
                        "type": "plainView",
                        "label": {
                            "name": "",
                            "tooltip": ""
                        },
                        "class": "",
                        "style": "",
                        "attrs": {},
                        "validators": {},
                        "dependencies": [],
                        "defaultVisible": true,
                        "templateUrl": "../data/claim/banking-info.html"
                    }]
                }]
            },
            "footer": {},
            "defaultVisible": true,
            "mode": "edit"
        }, {
            "id": 1435730187204,
            "name": "declaration",
            "header": {
                "name": "cfo.header.declaration"
            },
            "body": {
                "rows": [{
                    "id": 1435730636616,
                    "columns": [{
                        "name": "declarationText",
                        "id": "declarationTextId",
                        "type": "plainView",
                        "label": {
                            "name": "",
                            "tooltip": ""
                        },
                        "class": "",
                        "style": "",
                        "attrs": {},
                        "validators": {},
                        "dependencies": [],
                        "defaultVisible": true,
                        "templateUrl": "../data/claim/declaration-member.html"
                    }]
                }, {
                    "id": 1435730252593,
                    "columns": [{
                        "name": "agreement",
                        "id": "agreementId",
                        "type": "checkbox",
                        "label": {
                            "name": "",
                            "tooltip": "",
                            "tooltipPlacement": "top"
                        },
                        "class": "",
                        "style": "",
                        "attrs": {},
                        "validators": {
                            "isRequired": {
                                "message": "cfo.claim.err.isRequired"
                            }
                        },
                        "dependencies": [],
                        "defaultVisible": true,
                        "defaultDisable": false,
                        "items": [{
                            "label": "cfo.label.agreement",
                            "value": "agree",
                            "name": "agree"
                        }],
                        "alignment": "inline",
                        "labelCssClass": "",
                        "inputCssClass": "",
                        "labelStyle": "float:left;",
                        "inputStyle": "float:left;",
                        "defaultValue": ""
                    }],
                    "style": ""
                }],
                "style": "",
                "panelStyle": ""
            },
            "footer": {},
            "mode": "edit",
            "defaultVisible": true,
            "style": "",
            "panelStyle": ""
        }]
    }],
    "title": "cfo.header.screenTitleDental"
}
