{
    "COMMON_ABOUT_US": "About Us",
    "COMMON_SESSION_EXPIRED": "You have been logged out due to inactivity.",
    "COMMON_SESSION_EXPIRED_HEADER": "Session Expired",
    "COMMON_GREAT_EASTERN_LIFE_ASSURANCE": "Great Eastern Life Assurance Co Ltd",
    "COMMON_TERMS_AND_CONDITIONS": "Terms and Conditions",
    "COMMON_COPYRIGHT": "Copyright 2015 Great Eastern Holdings Limited (reg No 1999 03008M)",
    "COMMON_GREAT_EASTERN_HOLDINGS": "Great Eastern Holdings Ltd",
    "COMMON_PRIVACY_AND_SECURITY_POLICIES": "Privacy and Security Policies",
    "COMMON_CAREERS": "Careers",
    "COMMON_ACTION": "Action",
    "COMMON_OVERSEAS_ASSURANCE": "Overseas Assurance Corp Ltd",
    "COMMON_GET_LIVE_GREAT": "Get Live Great",
    "COMMON_UPDATES": "updates",
    "COMMON_CORP_INSURANCE": "Corporate Insurance",
    "COMMON_PERSONAL_INSURANCE": "Personal Insurance",
    "COMMON_LOGIN": "Log in",
    "COMMON_LOGOUT": "Log out",
    "cfo.menu.policyDetails": "Policy Details",
    "cfo.menu.myPortfolio": "My Portfolio",
    "cfo.menu.edocument": "E-Document",
    "cfo.menu.newreq": "New Request",
    "cfo.menu.claim": "Claim",
    "cfo.menu.report": "Report",
    "cfo.menu.createReports": "Create Reports",
    "cfo.menu.servicereq": "Service Request",
    "cfo.menu.profile": "Profile",
    "cfo.menu.overview": "Overview",
    "cfo.menu.overviewLife" : "Overview - Life",
    "cfo.menu.overviewInvestment": "Overview - Investment",
    "cfo.menu.factSheet": "Fact Sheet",
    "cfo.menu.overviewGeneral": "Overview - General",
    "cfo.menu.overviewGroup": "Overview - Group",
    "cfo.menu.myTransaction": "My Transaction",
    "cfo.menu.overviewGeneral": "Overview - General",
    "cfo.menu.proposalStatus": "Proposal Status",
    "cfo.menu.myService": "My Service",
    "cfo.menu.statusOverview": "Status Overview",
    "cfo.menu.detail": "Detail",
    "cfo.menu.submitRequest": "Submit Request",
    "cfo.menu.paymentMethod": "Change Payment Method",
    "cfo.menu.paymentFrequency": "Change Payment Frequency",
    "cfo.menu.fundSwitch": "Fund Switch",
    "cfo.menu.premiumApportionment": "Premium Apportionment",
    "cfo.menu.premiumTopUp": "Premium Top-up",
    "cfo.menu.partialWithdrawal": "Partial Withdrawal",
    "cfo.menu.myProfile": "My Profile",
    "cfo.menu.editPersonal": "Edit Personal Particular & Contact Info",
    "cfo.menu.changePassword": "Change Password",
    "cfo.menu.cka": "Customer Knowledge Assessment",
    "cfo.menu.shop": "Shop @ GE",
    "cfo.menu.notification": "Notification",
    "cfo.menu.reminder": "Reminder/ Notification",
    "cfo.menu.calendar": "Calendar",
    "cfo.menu.submitClaim": "Submit Claim",
    "cfo.menu.empClaim": "Employee Claim",
    "cfo.menu.empBenefit": "Employee Benefit",
    "cfo.menu.checkPanelClinic": "Check Panel Clinic",
    "cfo.menu.companyProfile": "Company Profile",
    "cfo.menu.report": "Report"
}
