{
    "cfo.label.policyCoverageEndDate": "Coverage End Date",

    "cfo.header.groupPremium": "Premium (SGD)",

    "cfo.label.groupPremiumDueDate": "Premium Due Date",

    "cfo.header.coverEndDate": "Cover End Date",

    "cfo.label.groupCommencementDate": "Commencement Date",

    "cfo.label.policyNo": "Policy No.",

    "cfo.button.policyDocument": "Policy Document",

    "cfo.header.policyDetails": "Policy Details",

    "cfo.label.paymentMethod": "Payment Method",

    "cfo.label.groupPolicyholderName": "Policyholder Name",

    "cfo.header.policyInfo": "Policy Info.",

    "cfo.header.groupBenefit": "Benefit",

    "cfo.label.intermidialy": "Intermidialy",

    "cfo.label.groupProductType": "Product Type",

    "cfo.label.groupNextPremiumDueAmount": "Next Premium Due Amount",

    "cfo.label.groupModeOfPayment": "Mode of Payment",

    "cfo.label.status": "Status",

    "cfo.label.currency": "Currency",

    "cfo.label.distributionRepresentative": "Distribution Representative",

    "cfo.header.benefitStatus": "Benefit Status",

    "cfo.header.policyDropDownListLabel": "Policy:",

    "cfo.header.coverStartDate": "Cover Start Date",

    "cfo.header.groupBenefitType": "Benefit Type",

    "cfo.label.selectpolicy": "Select Policy",

    "cfo.header.coverageDetails": "Coverage Detail",

    "cfo.header.planType": "Plan Type",
    "cfo.header.sumInsured": "Sum Insured",
    "cfo.header.premiumAmount": "Premium Amount",
    "cfo.label.policyDropDownListLabel": "Policy"

}
